{
  "images" : [
    {
      "idiom" : "universal",
      "filename" : "Blue Square BG.jpg",
      "scale" : "1x"
    },
    {
      "idiom" : "universal",
      "filename" : "Blue Square BG-2.jpg",
      "scale" : "2x"
    },
    {
      "idiom" : "universal",
      "filename" : "Blue Square BG-1.jpg",
      "scale" : "3x"
    }
  ],
  "info" : {
    "version" : 1,
    "author" : "xcode"
  }
}